graph grafo {
N_0 [pos="0.9222384,0.25287616"];
N_1 [pos="0.5870343,0.21388483"];
N_2 [pos="0.9889321,0.051039338"];
N_3 [pos="0.129704,0.62330747"];
N_4 [pos="0.15439737,0.858219"];
N_4 -- N_3 [label=1.0969474 ];
N_3 -- N_1 [label=3.2339807 ];
N_2 -- N_1 [label=3.8992882 ];
N_1 -- N_0 [label=9.487319 ];
N_2 -- N_0 [label=7.199655 ];
N_0 -- N_1 [label=9.487319 ];
N_1 -- N_3 [label=3.2339807 ];
N_0 -- N_2 [label=7.199655 ];
N_1 -- N_2 [label=3.8992882 ];
N_3 -- N_4 [label=1.0969474 ];
}