graph grafo {
N_9 -- N_16 [label=1.7513838 ];
N_8 -- N_9 [label=1.1008189 ];
N_9 -- N_17 [label=1.7006874 ];
N_2 -- N_18 [label=1.3531606 ];
N_7 -- N_10 [label=2.4824917 ];
N_16 -- N_15 [label=1.1993208 ];
N_1 -- N_11 [label=1.7068303 ];
N_13 -- N_9 [label=1.1600704 ];
N_16 -- N_3 [label=1.1398633 ];
N_7 -- N_16 [label=1.265373 ];
N_6 -- N_19 [label=1.0430295 ];
N_5 -- N_16 [label=1.3176525 ];
N_5 -- N_14 [label=1.546196 ];
N_11 -- N_13 [label=1.729542 ];
N_13 -- N_0 [label=1.4011185 ];
N_5 -- N_18 [label=1.1519064 ];
N_9 -- N_19 [label=1.5680785 ];
N_12 -- N_15 [label=2.8042786 ];
N_4 -- N_17 [label=2.2256734 ];
}